…
``` r
unique(vancouver_trees)
```

    ## # A tibble: 146,611 x 20
    ##    tree_id civic_number std_street    genus_name species_name cultivar_name  
    ##      <dbl>        <dbl> <chr>         <chr>      <chr>        <chr>          
    ##  1  149556          494 W 58TH AV     ULMUS      AMERICANA    BRANDON        
    ##  2  149563          450 W 58TH AV     ZELKOVA    SERRATA      <NA>           
    ##  3  149579         4994 WINDSOR ST    STYRAX     JAPONICA     <NA>           
    ##  4  149590          858 E 39TH AV     FRAXINUS   AMERICANA    AUTUMN APPLAUSE
    ##  5  149604         5032 WINDSOR ST    ACER       CAMPESTRE    <NA>           
    ##  6  149616          585 W 61ST AV     PYRUS      CALLERYANA   CHANTICLEER    
    ##  7  149617         4909 SHERBROOKE ST ACER       PLATANOIDES  COLUMNARE      
    ##  8  149618         4925 SHERBROOKE ST ACER       PLATANOIDES  COLUMNARE      
    ##  9  149619         4969 SHERBROOKE ST ACER       PLATANOIDES  COLUMNARE      
    ## 10  149625          720 E 39TH AV     FRAXINUS   AMERICANA    AUTUMN APPLAUSE
    ## # ... with 146,601 more rows, and 14 more variables: common_name <chr>,
    ## #   assigned <chr>, root_barrier <chr>, plant_area <chr>,
    ## #   on_street_block <dbl>, on_street <chr>, neighbourhood_name <chr>,
    ## #   street_side_name <chr>, height_range_id <dbl>, diameter <dbl>, curb <chr>,
    ## #   date_planted <date>, longitude <dbl>, latitude <dbl>
…
``` r
#recognize a few genus names such as fagus(beech), tsuga(select conifers) and others. Used website ontariotrees.com/main/list_genus.php to further research what species may be contained in each genus.
#going to create 2 new datasets. One will contain the genus quercus and the other will be pinus This will simplify analysis later on and Create the opportunity for comparison between evergreens (pinus entails pine trees) and deciduous species (as quercus genus are oak trees)

quercusgenus <- Trees %>% filter(genus_name=="QUERCUS")
pinusgenus <- Trees %>% filter(genus_name == "PINUS")
print(quercusgenus)
```

    ## # A tibble: 6,119 x 21
    ##    tree_id civic_number std_street   genus_name species_name cultivar_name
    ##      <dbl>        <dbl> <chr>        <chr>      <chr>        <chr>        
    ##  1  155306         6510 INVERNESS ST QUERCUS    ACUTISSIMA   <NA>         
    ##  2  155309         6626 INVERNESS ST QUERCUS    ACUTISSIMA   <NA>         
    ##  3  156222         2688 VINE ST      QUERCUS    ROBUR        <NA>         
    ##  4  156285          118 GARDEN DRIVE QUERCUS    ROBUR        SKYROCKET    
    ##  5  156287          120 GARDEN DRIVE QUERCUS    ROBUR        SKYROCKET    
    ##  6  156294          115 GARDEN DRIVE QUERCUS    ROBUR        SKYROCKET    
    ##  7  156422         2212 E 44TH AV    QUERCUS    ACUTISSIMA   <NA>         
    ##  8  156425         2268 E 44TH AV    QUERCUS    ACUTISSIMA   <NA>         
    ##  9  156436         2277 E 44TH AV    QUERCUS    ACUTISSIMA   <NA>         
    ## 10  156442         2126 E 44TH AV    QUERCUS    ACUTISSIMA   <NA>         
    ## # ... with 6,109 more rows, and 15 more variables: common_name <chr>,
    ## #   assigned <chr>, root_barrier <chr>, plant_area <chr>,
    ## #   on_street_block <dbl>, on_street <chr>, neighbourhood_name <chr>,
    ## #   street_side_name <chr>, height_range_id <dbl>, diameter <dbl>, curb <chr>,
    ## #   date_planted <date>, longitude <dbl>, latitude <dbl>, Year <dbl>

``` r
print(pinusgenus)
```

    ## # A tibble: 747 x 21
    ##    tree_id civic_number std_street       genus_name species_name cultivar_name
    ##      <dbl>        <dbl> <chr>            <chr>      <chr>        <chr>        
    ##  1  157412          430 DUNLEVY AV       PINUS      SYLVESTRIS   <NA>         
    ##  2  157413          430 DUNLEVY AV       PINUS      SYLVESTRIS   <NA>         
    ##  3  160131         1100 CHARLESON        PINUS      SPECIES      <NA>         
    ##  4  162418         3902 W KING EDWARD AV PINUS      NIGRA        <NA>         
    ##  5  162502         5505 OAK ST           PINUS      SYLVESTRIS   <NA>         
    ##  6  208886         3001 BOUNDARY ROAD    PINUS      NIGRA        <NA>         
    ##  7  221985         6172 COLLINGWOOD ST   PINUS      SPECIES      <NA>         
    ##  8   11977          768 PRIOR ST         PINUS      CONTORTA     <NA>         
    ##  9   12471          768 PRIOR ST         PINUS      CONTORTA     <NA>         
    ## 10   12575          762 PRIOR ST         PINUS      CONTORTA     <NA>         
    ## # ... with 737 more rows, and 15 more variables: common_name <chr>,
    ## #   assigned <chr>, root_barrier <chr>, plant_area <chr>,
    ## #   on_street_block <dbl>, on_street <chr>, neighbourhood_name <chr>,
    ## #   street_side_name <chr>, height_range_id <dbl>, diameter <dbl>, curb <chr>,
    ## #   date_planted <date>, longitude <dbl>, latitude <dbl>, Year <dbl>
…
