…
**Question** How does tree density vary in each neighbourhood?

**Summarizing** 2. Compute the number of observations for at least one
of your categorical variables. Do not use the function table()\!

``` r
#Because each tree is attached to a neighbourhood, we can just find the count of neighbourhoods in the tree data set and use that as the count of trees. BUT, we want to first remove all NA observations from the neighbourhood_name variable and then do the count!
Trees %>%
  filter(!is.na(neighbourhood_name)) %>%
  group_by(neighbourhood_name) %>%
  count(neighbourhood_name)
```

    ## # A tibble: 22 x 2
    ## # Groups:   neighbourhood_name [22]
    ##    neighbourhood_name           n
    ##    <chr>                    <int>
    ##  1 ARBUTUS-RIDGE             5169
    ##  2 DOWNTOWN                  5159
    ##  3 DUNBAR-SOUTHLANDS         9415
    ##  4 FAIRVIEW                  4002
    ##  5 GRANDVIEW-WOODLAND        6703
    ##  6 HASTINGS-SUNRISE         10547
    ##  7 KENSINGTON-CEDAR COTTAGE 11042
    ##  8 KERRISDALE                6936
    ##  9 KILLARNEY                 6148
    ## 10 KITSILANO                 8115
    ## # ... with 12 more rows
…
